12/2/07
Wicked Winter
------------------
TOOLS
MAX
MAKEITGOOD
PAINT
TEXTURE MAKER
HYPER SNAP
JIM K.s OFFROAD KIT
--------------------
I got my stuff working with xp.
So I made a little track.
This is my first track in some time.
So dont expect much.
---------------------
Thanks for trying my track.
rickyD